{
	"info": {
		"name": "probolinggodev with token",
		"_postman_id": "18a5e083-e24b-b7a3-6bfa-46ad528a1509",
		"description": "",
		"schema": "https://schema.getpostman.com/json/collection/v2.1.0/collection.json"
	},
	"item": [
		{
			"name": "0 Login & get token",
			"request": {
				"method": "POST",
				"header": [],
				"body": {
					"mode": "formdata",
					"formdata": [
						{
							"key": "email",
							"value": "goyette.theodora@example.org",
							"description": "",
							"type": "text"
						},
						{
							"key": "password",
							"value": "secret",
							"description": "",
							"type": "text"
						}
					]
				},
				"url": {
					"raw": "http://172.93.55.128/probolinggodev/api/login",
					"protocol": "http",
					"host": [
						"172",
						"93",
						"55",
						"128"
					],
					"path": [
						"probolinggodev",
						"api",
						"login"
					]
				},
				"description": ""
			},
			"response": []
		},
		{
			"name": "1 get product",
			"request": {
				"method": "GET",
				"header": [
					{
						"key": "Authorization",
						"value": "Bearer 1EMjZverWHjFYYYTXetiWlg889N3mfCBKJALNd4fzsF7fOtzzfUTh5m10U1t"
					}
				],
				"body": {},
				"url": {
					"raw": "http://172.93.55.128/probolinggodev/api/backend/product",
					"protocol": "http",
					"host": [
						"172",
						"93",
						"55",
						"128"
					],
					"path": [
						"probolinggodev",
						"api",
						"backend",
						"product"
					]
				},
				"description": ""
			},
			"response": []
		},
		{
			"name": "2 get product with search and filter",
			"request": {
				"method": "GET",
				"header": [
					{
						"key": "Authorization",
						"value": "Bearer 1EMjZverWHjFYYYTXetiWlg889N3mfCBKJALNd4fzsF7fOtzzfUTh5m10U1t"
					}
				],
				"body": {},
				"url": {
					"raw": "http://172.93.55.128/probolinggodev/api/backend/product?filter=MAKANAN&search=ayam",
					"protocol": "http",
					"host": [
						"172",
						"93",
						"55",
						"128"
					],
					"path": [
						"probolinggodev",
						"api",
						"backend",
						"product"
					],
					"query": [
						{
							"key": "filter",
							"value": "MAKANAN",
							"equals": true
						},
						{
							"key": "search",
							"value": "ayam",
							"equals": true
						}
					]
				},
				"description": ""
			},
			"response": []
		},
		{
			"name": "3 get product detail",
			"request": {
				"method": "GET",
				"header": [
					{
						"key": "Authorization",
						"value": "Bearer 1EMjZverWHjFYYYTXetiWlg889N3mfCBKJALNd4fzsF7fOtzzfUTh5m10U1t"
					}
				],
				"body": {},
				"url": {
					"raw": "http://172.93.55.128/probolinggodev/api/backend/product/14",
					"protocol": "http",
					"host": [
						"172",
						"93",
						"55",
						"128"
					],
					"path": [
						"probolinggodev",
						"api",
						"backend",
						"product",
						"14"
					]
				},
				"description": ""
			},
			"response": []
		},
		{
			"name": "4 create record",
			"request": {
				"method": "POST",
				"header": [
					{
						"key": "Authorization",
						"value": "Bearer 1EMjZverWHjFYYYTXetiWlg889N3mfCBKJALNd4fzsF7fOtzzfUTh5m10U1t"
					}
				],
				"body": {
					"mode": "formdata",
					"formdata": [
						{
							"key": "name",
							"value": "sue",
							"description": "",
							"type": "text"
						},
						{
							"key": "description",
							"value": "deskripsi",
							"description": "",
							"type": "text",
							"disabled": true
						},
						{
							"key": "category",
							"value": "MAKANAN",
							"description": "",
							"type": "text",
							"disabled": true
						}
					]
				},
				"url": {
					"raw": "http://172.93.55.128/probolinggodev/api/backend/product",
					"protocol": "http",
					"host": [
						"172",
						"93",
						"55",
						"128"
					],
					"path": [
						"probolinggodev",
						"api",
						"backend",
						"product"
					]
				},
				"description": ""
			},
			"response": []
		},
		{
			"name": "5 update record",
			"request": {
				"method": "POST",
				"header": [
					{
						"key": "Authorization",
						"value": "Bearer 1EMjZverWHjFYYYTXetiWlg889N3mfCBKJALNd4fzsF7fOtzzfUTh5m10U1t"
					}
				],
				"body": {
					"mode": "formdata",
					"formdata": [
						{
							"key": "name",
							"value": "KELAPA MUDA",
							"description": "",
							"type": "text"
						},
						{
							"key": "description",
							"value": "deskripsi",
							"description": "",
							"type": "text"
						},
						{
							"key": "category",
							"value": "MINUMAN",
							"description": "",
							"type": "text"
						},
						{
							"key": "id",
							"value": "14",
							"description": "",
							"type": "text"
						}
					]
				},
				"url": {
					"raw": "http://172.93.55.128/probolinggodev/api/backend/product/update",
					"protocol": "http",
					"host": [
						"172",
						"93",
						"55",
						"128"
					],
					"path": [
						"probolinggodev",
						"api",
						"backend",
						"product",
						"update"
					]
				},
				"description": ""
			},
			"response": []
		},
		{
			"name": "6 delete record",
			"request": {
				"method": "DELETE",
				"header": [
					{
						"key": "Authorization",
						"value": "Bearer 1EMjZverWHjFYYYTXetiWlg889N3mfCBKJALNd4fzsF7fOtzzfUTh5m10U1t"
					}
				],
				"body": {
					"mode": "formdata",
					"formdata": [
						{
							"key": "name",
							"value": "KELAPA MUDA",
							"description": "",
							"type": "text",
							"disabled": true
						},
						{
							"key": "description",
							"value": "deskripsi",
							"description": "",
							"type": "text",
							"disabled": true
						},
						{
							"key": "category",
							"value": "MINUMAN",
							"description": "",
							"type": "text",
							"disabled": true
						},
						{
							"key": "id",
							"value": "9",
							"description": "",
							"type": "text",
							"disabled": true
						}
					]
				},
				"url": {
					"raw": "http://172.93.55.128/probolinggodev/api/product/delete/14",
					"protocol": "http",
					"host": [
						"172",
						"93",
						"55",
						"128"
					],
					"path": [
						"probolinggodev",
						"api",
						"product",
						"delete",
						"14"
					]
				},
				"description": ""
			},
			"response": []
		},
		{
			"name": "7 logout",
			"request": {
				"method": "GET",
				"header": [
					{
						"key": "Authorization",
						"value": "Bearer 1EMjZverWHjFYYYTXetiWlg889N3mfCBKJALNd4fzsF7fOtzzfUTh5m10U1t"
					}
				],
				"body": {
					"mode": "formdata",
					"formdata": [
						{
							"key": "email",
							"value": "goyette.theodora@example.org",
							"description": "",
							"type": "text"
						},
						{
							"key": "password",
							"value": "secret",
							"description": "",
							"type": "text"
						}
					]
				},
				"url": {
					"raw": "http://localhost/zullab/probolinggodev/probolinggodev/public/api/logout",
					"protocol": "http",
					"host": [
						"localhost"
					],
					"path": [
						"zullab",
						"probolinggodev",
						"probolinggodev",
						"public",
						"api",
						"logout"
					]
				},
				"description": ""
			},
			"response": []
		}
	]
}